^C:\USERS\USER\DESKTOP\ASSIGNMENT2019\ASSIGNMENT2019\ASSIGNMENT2019\MAIN.CPP|C:\USERS\USER\DESKTOP\ASSIGNMENT2019\ASSIGNMENT2019\ASSIGNMENT2019\PPM.CPP
C:\USERS\USER\DESKTOP\ASSIGNMENT2019\ASSIGNMENT2019\ASSIGNMENT2019\X64\DEBUG\VC142.PDB
C:\USERS\USER\DESKTOP\ASSIGNMENT2019\ASSIGNMENT2019\ASSIGNMENT2019\X64\DEBUG\VC142.IDB
C:\USERS\USER\DESKTOP\ASSIGNMENT2019\ASSIGNMENT2019\ASSIGNMENT2019\X64\DEBUG\PPM.OBJ
C:\USERS\USER\DESKTOP\ASSIGNMENT2019\ASSIGNMENT2019\ASSIGNMENT2019\X64\DEBUG\MAIN.OBJ
^C:\USERS\USER\DESKTOP\ASSIGNMENT2019\ASSIGNMENT2019\ASSIGNMENT2019\PPM.CPP
C:\USERS\USER\DESKTOP\ASSIGNMENT2019\ASSIGNMENT2019\ASSIGNMENT2019\X64\DEBUG\VC142.PDB
^C:\USERS\USER\DESKTOP\ASSIGNMENT2019\ASSIGNMENT2019\ASSIGNMENT2019\MAIN.CPP
C:\USERS\USER\DESKTOP\ASSIGNMENT2019\ASSIGNMENT2019\ASSIGNMENT2019\X64\DEBUG\VC142.PDB
C:\USERS\USER\DESKTOP\ASSIGNMENT2019\ASSIGNMENT2019\ASSIGNMENT2019\X64\DEBUG\VC142.IDB
C:\USERS\USER\DESKTOP\ASSIGNMENT2019\ASSIGNMENT2019\ASSIGNMENT2019\X64\DEBUG\MAIN.OBJ
