﻿  main.cpp
C:\Users\user\Desktop\Assignment2019\Assignment2019\Assignment2019\image.h(88,22): warning C4018: '<': signed/unsigned mismatch
C:\Users\user\Desktop\Assignment2019\Assignment2019\Assignment2019\Filter.h(114,14): warning C4244: '=': conversion from 'double' to 'float', possible loss of data
C:\Users\user\Desktop\Assignment2019\Assignment2019\Assignment2019\array2d.h(62,2): warning C4018: '<': signed/unsigned mismatch
C:\Users\user\Desktop\Assignment2019\Assignment2019\Assignment2019\array2d.h(60): message : while compiling class template member function 'void math::Array2D<Color>::setData(const T *const &)'
C:\Users\user\Desktop\Assignment2019\Assignment2019\Assignment2019\array2d.h(60): message :         with
C:\Users\user\Desktop\Assignment2019\Assignment2019\Assignment2019\array2d.h(60): message :         [
C:\Users\user\Desktop\Assignment2019\Assignment2019\Assignment2019\array2d.h(60): message :             T=Color
C:\Users\user\Desktop\Assignment2019\Assignment2019\Assignment2019\array2d.h(60): message :         ]
C:\Users\user\Desktop\Assignment2019\Assignment2019\Assignment2019\array2d.h(109): message : see reference to function template instantiation 'void math::Array2D<Color>::setData(const T *const &)' being compiled
C:\Users\user\Desktop\Assignment2019\Assignment2019\Assignment2019\array2d.h(109): message :         with
C:\Users\user\Desktop\Assignment2019\Assignment2019\Assignment2019\array2d.h(109): message :         [
C:\Users\user\Desktop\Assignment2019\Assignment2019\Assignment2019\array2d.h(109): message :             T=Color
C:\Users\user\Desktop\Assignment2019\Assignment2019\Assignment2019\array2d.h(109): message :         ]
C:\Users\user\Desktop\Assignment2019\Assignment2019\Assignment2019\image.h(15): message : see reference to class template instantiation 'math::Array2D<Color>' being compiled
  Assignment2019.vcxproj -> C:\Users\user\Desktop\Assignment2019\Assignment2019\x64\Debug\Assignment2019.exe
